…
    ## Warning: 761 parsing failures.
    ## row col  expected    actual             file
    ##   1  -- 7 columns 8 columns 'co2_mm_mlo.txt'
    ##   2  -- 7 columns 8 columns 'co2_mm_mlo.txt'
    ##   3  -- 7 columns 8 columns 'co2_mm_mlo.txt'
    ##   4  -- 7 columns 8 columns 'co2_mm_mlo.txt'
    ##   5  -- 7 columns 8 columns 'co2_mm_mlo.txt'
    ## ... ... ......... ......... ................
    ## See problems(...) for more details.

``` r
co2
```

    ## # A tibble: 761 × 7
    ##     year month decimal_date average interpolated trend  days
    ##    <dbl> <dbl>        <dbl>   <dbl>        <dbl> <dbl> <dbl>
    ##  1  1958     3        1958.    316.         314.    NA -9.99
    ##  2  1958     4        1958.    317.         315.    NA -9.99
    ##  3  1958     5        1958.    318.         315.    NA -9.99
    ##  4  1958     6        1958.    317.         315.    NA -9.99
    ##  5  1958     7        1959.    316.         315.    NA -9.99
    ##  6  1958     8        1959.    315.         316.    NA -9.99
    ##  7  1958     9        1959.    313.         316.    NA -9.99
    ##  8  1958    10        1959.    312.         315.    NA -9.99
    ##  9  1958    11        1959.    313.         315.    NA -9.99
    ## 10  1958    12        1959.    315.         315.    NA -9.99
    ## # … with 751 more rows
…
    ## 
    ## ── Column specification ────────────────────────────────────────────────────────
    ## cols(
    ##   year = col_double(),
    ##   NoSmoothing = col_double(),
    ##   Lowess = col_double()
    ## )

``` r
gt
```

    ## # A tibble: 141 × 3
    ##     year NoSmoothing Lowess
    ##    <dbl>       <dbl>  <dbl>
    ##  1  1880       -0.16  -0.08
    ##  2  1881       -0.08  -0.12
    ##  3  1882       -0.1   -0.16
    ##  4  1883       -0.16  -0.2 
    ##  5  1884       -0.28  -0.23
    ##  6  1885       -0.33  -0.26
    ##  7  1886       -0.31  -0.27
    ##  8  1887       -0.36  -0.27
    ##  9  1888       -0.17  -0.26
    ## 10  1889       -0.1   -0.25
    ## # … with 131 more rows
…
## Question 2:

Construct the necessary R code to import this data set as a tidy `Table`
object.

``` r
icesheet <- read.csv("499_GRN_ANT_mass_changes.csv",
                     col.names=c("Year","Greenland Mass","Antarctica Mass"))

icesheet %>% as_tibble()
```

    ## # A tibble: 139 × 3
    ##     Year Greenland.Mass Antarctica.Mass
    ##    <dbl>          <dbl>           <dbl>
    ##  1 2002.          1486.            979.
    ##  2 2003.          1287.            512.
    ##  3 2003.          1258.            859.
    ##  4 2003.          1257.            694.
    ##  5 2003.          1288.            592.
    ##  6 2003.          1337.            658.
    ##  7 2003.          1354.            477.
    ##  8 2003.          1363.            546.
    ##  9 2003.          1427.            494.
    ## 10 2003.          1480.            577.
    ## # … with 129 more rows
…
``` r
globalsea
```

    ## # A tibble: 847 × 12
    ##    `altimeter type` `merged file cycle`  year `number of obser… `number of weig…
    ##               <dbl>               <dbl> <dbl>             <dbl>            <dbl>
    ##  1                0                  11 1993.            463892          336485.
    ##  2                0                  12 1993.            458154          333208.
    ##  3                0                  13 1993.            469524          341593.
    ##  4                0                  14 1993.            419112          305335.
    ##  5                0                  15 1993.            456793          330244.
    ##  6                0                  16 1993.            414055          299600.
    ##  7                0                  17 1993.            465235          336243.
    ##  8                0                  18 1993.            463257          334575.
    ##  9                0                  19 1993.            458542          330751.
    ## 10              999                  20 1993.            464921          339267.
    ## # … with 837 more rows, and 7 more variables: GMSL (GIA not applied) <dbl>,
    ## #   Standard Deviation of GMSL (GIA not applied) <dbl>,
    ## #   smoothed GMSL variation (GIA not applied) <dbl>, GMSL (GIA applied) <dbl>,
    ## #   Standard Deviation of GMSL (GIA applied) <dbl>,
    ## #   smoothed GMSL with variation (GIA applied) <dbl>,
    ## #   smoothed_GMSL_with_variation_annual_and_semiannual_signal_removed <dbl>
…
## Question 2:

Construct the necessary R code to import this data set as a tidy `Table`
object.

``` r
seaice <- read.csv("seaice.csv")
seaice %>% as_tibble()
```

    ## # A tibble: 14,016 × 6
    ##     Year Month   Day Extent Missing Source.Data                                 
    ##    <int> <int> <int>  <dbl>   <dbl> <chr>                                       
    ##  1  1978    10    26   10.2       0 " ['/ecs/DP1/PM/NSIDC-0051.001/1978.10.26/n…
    ##  2  1978    10    28   10.4       0 " ['/ecs/DP1/PM/NSIDC-0051.001/1978.10.28/n…
    ##  3  1978    10    30   10.6       0 " ['/ecs/DP1/PM/NSIDC-0051.001/1978.10.30/n…
    ##  4  1978    11     1   10.7       0 " ['/ecs/DP1/PM/NSIDC-0051.001/1978.11.01/n…
    ##  5  1978    11     3   10.8       0 " ['/ecs/DP1/PM/NSIDC-0051.001/1978.11.03/n…
    ##  6  1978    11     5   11.0       0 " ['/ecs/DP1/PM/NSIDC-0051.001/1978.11.05/n…
    ##  7  1978    11     7   11.1       0 " ['/ecs/DP1/PM/NSIDC-0051.001/1978.11.07/n…
    ##  8  1978    11     9   11.2       0 " ['/ecs/DP1/PM/NSIDC-0051.001/1978.11.09/n…
    ##  9  1978    11    11   11.3       0 " ['/ecs/DP1/PM/NSIDC-0051.001/1978.11.11/n…
    ## 10  1978    11    13   11.5       0 " ['/ecs/DP1/PM/NSIDC-0051.001/1978.11.13/n…
    ## # … with 14,006 more rows
…
    ## 
    ## ── Column specification ────────────────────────────────────────────────────────
    ## cols(
    ##   Depth = col_double(),
    ##   AgeoftheIce = col_double(),
    ##   MeanAgeoftheAir = col_double(),
    ##   co2concentrations = col_double()
    ## )

``` r
rev_icecore <- icecore[nrow(icecore):1, ]
icecore
```

    ## # A tibble: 363 × 4
    ##    Depth AgeoftheIce MeanAgeoftheAir co2concentrations
    ##    <dbl>       <dbl>           <dbl>             <dbl>
    ##  1  149.        5679            2342              285.
    ##  2  173.        6828            3634              273.
    ##  3  177.        7043            3833              268.
    ##  4  229.        9523            6220              262.
    ##  5  250.       10579            7327              255.
    ##  6  266        11334            8113              260.
    ##  7  303.       13449           10123              262.
    ##  8  321.       14538           11013              264.
    ##  9  332.       15208           11326              245.
    ## 10  342.       15922           11719              238.
    ## # … with 353 more rows

``` r
rev_icecore
```

    ## # A tibble: 363 × 4
    ##    Depth AgeoftheIce MeanAgeoftheAir co2concentrations
    ##    <dbl>       <dbl>           <dbl>             <dbl>
    ##  1 3304.      419328          417160              278.
    ##  2 3301.      417638          415434              287.
    ##  3 3299.      416332          414085              286.
    ##  4 3293.      413010          410831              276.
    ##  5 3289.      411202          409022              284.
    ##  6 3289.      411202          409022              281.
    ##  7 3284.      408236          405844              280.
    ##  8 3274.      403173          400390              278 
    ##  9 3271.      401423          398554              277.
    ## 10 3268.      399733          396713              275.
    ## # … with 353 more rows
…
    ## 
    ## ── Column specification ────────────────────────────────────────────────────────
    ## cols(
    ##   Year = col_double(),
    ##   Mean = col_double(),
    ##   Unc = col_double()
    ## )

``` r
co2mauna
```

    ## # A tibble: 62 × 3
    ##     Year  Mean   Unc
    ##    <dbl> <dbl> <dbl>
    ##  1  1959  316.  0.12
    ##  2  1960  317.  0.12
    ##  3  1961  318.  0.12
    ##  4  1962  318.  0.12
    ##  5  1963  319.  0.12
    ##  6  1964  320.  0.12
    ##  7  1965  320.  0.12
    ##  8  1966  321.  0.12
    ##  9  1967  322.  0.12
    ## 10  1968  323.  0.12
    ## # … with 52 more rows
…
